
extDB3: https://bitbucket.org/torndeco/extdb3/wiki/Home
extDB3: Version: 1.031
extDB3: Windows Version
Message: All development for extDB3 is done on a Linux Dedicated Server
Message: If you would like to Donate to extDB3 Development
Message: https://www.paypal.com/cgi-bin/webscr?cmd=_s-xclick&hosted_button_id=2SUEFTGABTAM2
Message: Also leave a message if there is any particular feature you would like to see added.
Message: Thanks for all the people that have donated.
Message: Torndeco: 18/05/15


extDB3: Found extdb3-conf.ini
extDB3: Detected 8 Cores, Setting up 6 Worker Threads
extDB3: ...
extDB3: ...
extDB3: ...
extDB3: ...
extDB3: ...
extDB3: ...


[00:38:16:646823 +01:00] [Thread 18380] extDB3: SQL: Initialized: Add Quotes around TEXT Datatypes mode: 2
[00:38:16:646881 +01:00] [Thread 18380] extDB3: SQL: Initialized: NULL = ""
[00:38:16:647231 +01:00] [Thread 18380] extDB3: Locked
[00:38:16:657297 +01:00] [Thread 17832] extDB3: SQL: Error MariaDBQueryException: The user specified as a definer ('arma3'@'localhost') does not exist
[00:38:16:657299 +01:00] [Thread 20288] extDB3: SQL: Error MariaDBQueryException: The user specified as a definer ('arma3'@'localhost') does not exist
[00:38:16:657301 +01:00] [Thread 19240] extDB3: SQL: Error MariaDBQueryException: The user specified as a definer ('arma3'@'localhost') does not exist
[00:38:16:657363 +01:00] [Thread 17832] extDB3: SQL: Error MariaDBQueryException: Input: CALL resetLifeVehicles
[00:38:16:657409 +01:00] [Thread 20288] extDB3: SQL: Error MariaDBQueryException: Input: CALL deleteDeadVehicles
[00:38:16:657451 +01:00] [Thread 19240] extDB3: SQL: Error MariaDBQueryException: Input: CALL deleteOldHouses
[00:38:16:657537 +01:00] [Thread 6036] extDB3: SQL: Error MariaDBQueryException: The user specified as a definer ('arma3'@'localhost') does not exist
[00:38:16:657564 +01:00] [Thread 6036] extDB3: SQL: Error MariaDBQueryException: Input: CALL deleteOldGangs
