
extDB3: https://bitbucket.org/torndeco/extdb3/wiki/Home
extDB3: Version: 1.031
extDB3: Windows Version
Message: All development for extDB3 is done on a Linux Dedicated Server
Message: If you would like to Donate to extDB3 Development
Message: https://www.paypal.com/cgi-bin/webscr?cmd=_s-xclick&hosted_button_id=2SUEFTGABTAM2
Message: Also leave a message if there is any particular feature you would like to see added.
Message: Thanks for all the people that have donated.
Message: Torndeco: 18/05/15


extDB3: Found extdb3-conf.ini
extDB3: Detected 8 Cores, Setting up 6 Worker Threads
extDB3: ...
extDB3: ...
extDB3: ...
extDB3: ...
extDB3: ...
extDB3: ...


[21:05:02:979516 +01:00] [Thread 14980] extDB3: SQL: Initialized: Add Quotes around TEXT Datatypes mode: 2
[21:05:02:979606 +01:00] [Thread 14980] extDB3: SQL: Initialized: NULL = ""
[21:05:02:980315 +01:00] [Thread 14980] extDB3: Locked
[21:05:02:996676 +01:00] [Thread 14672] extDB3: SQL: Error MariaDBQueryException: The user specified as a definer ('arma3'@'localhost') does not exist
[21:05:02:996676 +01:00] [Thread 12592] extDB3: SQL: Error MariaDBQueryException: The user specified as a definer ('arma3'@'localhost') does not exist
[21:05:02:996678 +01:00] [Thread 14428] extDB3: SQL: Error MariaDBQueryException: The user specified as a definer ('arma3'@'localhost') does not exist
[21:05:02:996760 +01:00] [Thread 14672] extDB3: SQL: Error MariaDBQueryException: Input: CALL deleteDeadVehicles
[21:05:02:996822 +01:00] [Thread 12592] extDB3: SQL: Error MariaDBQueryException: Input: CALL resetLifeVehicles
[21:05:02:996898 +01:00] [Thread 14428] extDB3: SQL: Error MariaDBQueryException: Input: CALL deleteOldHouses
[21:05:02:997106 +01:00] [Thread 4660] extDB3: SQL: Error MariaDBQueryException: The user specified as a definer ('arma3'@'localhost') does not exist
[21:05:02:997150 +01:00] [Thread 4660] extDB3: SQL: Error MariaDBQueryException: Input: CALL deleteOldGangs
