
extDB3: https://bitbucket.org/torndeco/extdb3/wiki/Home
extDB3: Version: 1.031
extDB3: Windows Version
Message: All development for extDB3 is done on a Linux Dedicated Server
Message: If you would like to Donate to extDB3 Development
Message: https://www.paypal.com/cgi-bin/webscr?cmd=_s-xclick&hosted_button_id=2SUEFTGABTAM2
Message: Also leave a message if there is any particular feature you would like to see added.
Message: Thanks for all the people that have donated.
Message: Torndeco: 18/05/15


extDB3: Found extdb3-conf.ini
extDB3: Detected 8 Cores, Setting up 6 Worker Threads
extDB3: ...
extDB3: ...
extDB3: ...
extDB3: ...
extDB3: ...
extDB3: ...


[04:43:15:209902 +01:00] [Thread 16712] extDB3: SQL: Initialized: Add Quotes around TEXT Datatypes mode: 2
[04:43:15:209971 +01:00] [Thread 16712] extDB3: SQL: Initialized: NULL = ""
[04:43:15:210425 +01:00] [Thread 16712] extDB3: Locked
[04:43:15:220339 +01:00] [Thread 6640] extDB3: SQL: Error MariaDBQueryException: The user specified as a definer ('arma3'@'localhost') does not exist
[04:43:15:220376 +01:00] [Thread 16212] extDB3: SQL: Error MariaDBQueryException: The user specified as a definer ('arma3'@'localhost') does not exist
[04:43:15:220415 +01:00] [Thread 6640] extDB3: SQL: Error MariaDBQueryException: Input: CALL resetLifeVehicles
[04:43:15:220504 +01:00] [Thread 16212] extDB3: SQL: Error MariaDBQueryException: Input: CALL deleteDeadVehicles
[04:43:15:220676 +01:00] [Thread 12924] extDB3: SQL: Error MariaDBQueryException: The user specified as a definer ('arma3'@'localhost') does not exist
[04:43:15:220722 +01:00] [Thread 21984] extDB3: SQL: Error MariaDBQueryException: The user specified as a definer ('arma3'@'localhost') does not exist
[04:43:15:220741 +01:00] [Thread 12924] extDB3: SQL: Error MariaDBQueryException: Input: CALL deleteOldHouses
[04:43:15:220772 +01:00] [Thread 21984] extDB3: SQL: Error MariaDBQueryException: Input: CALL deleteOldGangs
