
extDB3: https://bitbucket.org/torndeco/extdb3/wiki/Home
extDB3: Version: 1.031
extDB3: Windows Version
Message: All development for extDB3 is done on a Linux Dedicated Server
Message: If you would like to Donate to extDB3 Development
Message: https://www.paypal.com/cgi-bin/webscr?cmd=_s-xclick&hosted_button_id=2SUEFTGABTAM2
Message: Also leave a message if there is any particular feature you would like to see added.
Message: Thanks for all the people that have donated.
Message: Torndeco: 18/05/15


extDB3: Found extdb3-conf.ini
extDB3: Detected 8 Cores, Setting up 6 Worker Threads
extDB3: ...
extDB3: ...
extDB3: ...
extDB3: ...
extDB3: ...
extDB3: ...


[05:16:25:376829 +01:00] [Thread 12540] extDB3: SQL: Initialized: Add Quotes around TEXT Datatypes mode: 2
[05:16:25:376901 +01:00] [Thread 12540] extDB3: SQL: Initialized: NULL = ""
[05:16:25:377405 +01:00] [Thread 12540] extDB3: Locked
[05:16:25:386280 +01:00] [Thread 19276] extDB3: SQL: Error MariaDBQueryException: The user specified as a definer ('arma3'@'localhost') does not exist
[05:16:25:386281 +01:00] [Thread 19208] extDB3: SQL: Error MariaDBQueryException: The user specified as a definer ('arma3'@'localhost') does not exist
[05:16:25:386280 +01:00] [Thread 18292] extDB3: SQL: Error MariaDBQueryException: The user specified as a definer ('arma3'@'localhost') does not exist
[05:16:25:386351 +01:00] [Thread 19276] extDB3: SQL: Error MariaDBQueryException: Input: CALL deleteOldHouses
[05:16:25:386396 +01:00] [Thread 19208] extDB3: SQL: Error MariaDBQueryException: Input: CALL deleteDeadVehicles
[05:16:25:386439 +01:00] [Thread 18292] extDB3: SQL: Error MariaDBQueryException: Input: CALL resetLifeVehicles
[05:16:25:386543 +01:00] [Thread 20764] extDB3: SQL: Error MariaDBQueryException: The user specified as a definer ('arma3'@'localhost') does not exist
[05:16:25:386621 +01:00] [Thread 20764] extDB3: SQL: Error MariaDBQueryException: Input: CALL deleteOldGangs
