
extDB3: https://bitbucket.org/torndeco/extdb3/wiki/Home
extDB3: Version: 1.031
extDB3: Windows Version
Message: All development for extDB3 is done on a Linux Dedicated Server
Message: If you would like to Donate to extDB3 Development
Message: https://www.paypal.com/cgi-bin/webscr?cmd=_s-xclick&hosted_button_id=2SUEFTGABTAM2
Message: Also leave a message if there is any particular feature you would like to see added.
Message: Thanks for all the people that have donated.
Message: Torndeco: 18/05/15


extDB3: Found extdb3-conf.ini
extDB3: Detected 8 Cores, Setting up 6 Worker Threads
extDB3: ...
extDB3: ...
extDB3: ...
extDB3: ...
extDB3: ...
extDB3: ...


[14:57:50:558670 +01:00] [Thread 2176] extDB3: SQL: Initialized: Add Quotes around TEXT Datatypes mode: 2
[14:57:50:558742 +01:00] [Thread 2176] extDB3: SQL: Initialized: NULL = ""
[14:57:50:559161 +01:00] [Thread 2176] extDB3: Locked
[14:57:50:566425 +01:00] [Thread 13124] extDB3: SQL: Error MariaDBQueryException: The user specified as a definer ('arma3'@'localhost') does not exist
[14:57:50:566425 +01:00] [Thread 12152] extDB3: SQL: Error MariaDBQueryException: The user specified as a definer ('arma3'@'localhost') does not exist
[14:57:50:566426 +01:00] [Thread 15480] extDB3: SQL: Error MariaDBQueryException: The user specified as a definer ('arma3'@'localhost') does not exist
[14:57:50:566480 +01:00] [Thread 13124] extDB3: SQL: Error MariaDBQueryException: Input: CALL resetLifeVehicles
[14:57:50:566518 +01:00] [Thread 12152] extDB3: SQL: Error MariaDBQueryException: Input: CALL deleteOldHouses
[14:57:50:566542 +01:00] [Thread 15480] extDB3: SQL: Error MariaDBQueryException: Input: CALL deleteDeadVehicles
[14:57:50:566662 +01:00] [Thread 15660] extDB3: SQL: Error MariaDBQueryException: The user specified as a definer ('arma3'@'localhost') does not exist
[14:57:50:566685 +01:00] [Thread 15660] extDB3: SQL: Error MariaDBQueryException: Input: CALL deleteOldGangs
