
extDB3: https://bitbucket.org/torndeco/extdb3/wiki/Home
extDB3: Version: 1.031
extDB3: Windows Version
Message: All development for extDB3 is done on a Linux Dedicated Server
Message: If you would like to Donate to extDB3 Development
Message: https://www.paypal.com/cgi-bin/webscr?cmd=_s-xclick&hosted_button_id=2SUEFTGABTAM2
Message: Also leave a message if there is any particular feature you would like to see added.
Message: Thanks for all the people that have donated.
Message: Torndeco: 18/05/15


extDB3: Found extdb3-conf.ini
extDB3: Detected 8 Cores, Setting up 6 Worker Threads
extDB3: ...
extDB3: ...
extDB3: ...
extDB3: ...
extDB3: ...
extDB3: ...


[13:23:19:602565 +01:00] [Thread 11332] extDB3: SQL: Initialized: Add Quotes around TEXT Datatypes mode: 2
[13:23:19:602609 +01:00] [Thread 11332] extDB3: SQL: Initialized: NULL = ""
[13:23:19:602870 +01:00] [Thread 11332] extDB3: Locked
[13:23:19:610540 +01:00] [Thread 2212] extDB3: SQL: Error MariaDBQueryException: The user specified as a definer ('arma3'@'localhost') does not exist
[13:23:19:610540 +01:00] [Thread 2808] extDB3: SQL: Error MariaDBQueryException: The user specified as a definer ('arma3'@'localhost') does not exist
[13:23:19:610540 +01:00] [Thread 13092] extDB3: SQL: Error MariaDBQueryException: The user specified as a definer ('arma3'@'localhost') does not exist
[13:23:19:610599 +01:00] [Thread 2212] extDB3: SQL: Error MariaDBQueryException: Input: CALL deleteOldHouses
[13:23:19:610634 +01:00] [Thread 2808] extDB3: SQL: Error MariaDBQueryException: Input: CALL deleteDeadVehicles
[13:23:19:610661 +01:00] [Thread 13092] extDB3: SQL: Error MariaDBQueryException: Input: CALL resetLifeVehicles
[13:23:19:610765 +01:00] [Thread 2096] extDB3: SQL: Error MariaDBQueryException: The user specified as a definer ('arma3'@'localhost') does not exist
[13:23:19:610791 +01:00] [Thread 2096] extDB3: SQL: Error MariaDBQueryException: Input: CALL deleteOldGangs
