
extDB3: https://bitbucket.org/torndeco/extdb3/wiki/Home
extDB3: Version: 1.031
extDB3: Windows Version
Message: All development for extDB3 is done on a Linux Dedicated Server
Message: If you would like to Donate to extDB3 Development
Message: https://www.paypal.com/cgi-bin/webscr?cmd=_s-xclick&hosted_button_id=2SUEFTGABTAM2
Message: Also leave a message if there is any particular feature you would like to see added.
Message: Thanks for all the people that have donated.
Message: Torndeco: 18/05/15


extDB3: Found extdb3-conf.ini
extDB3: Detected 8 Cores, Setting up 6 Worker Threads
extDB3: ...
extDB3: ...
extDB3: ...
extDB3: ...
extDB3: ...
extDB3: ...


[14:39:33:634171 +01:00] [Thread 11536] extDB3: SQL: Initialized: Add Quotes around TEXT Datatypes mode: 2
[14:39:33:634256 +01:00] [Thread 11536] extDB3: SQL: Initialized: NULL = ""
[14:39:33:634763 +01:00] [Thread 11536] extDB3: Locked
[14:39:33:645500 +01:00] [Thread 7992] extDB3: SQL: Error MariaDBQueryException: The user specified as a definer ('arma3'@'localhost') does not exist
[14:39:33:645502 +01:00] [Thread 6724] extDB3: SQL: Error MariaDBQueryException: The user specified as a definer ('arma3'@'localhost') does not exist
[14:39:33:645500 +01:00] [Thread 16312] extDB3: SQL: Error MariaDBQueryException: The user specified as a definer ('arma3'@'localhost') does not exist
[14:39:33:645570 +01:00] [Thread 7992] extDB3: SQL: Error MariaDBQueryException: Input: CALL resetLifeVehicles
[14:39:33:645614 +01:00] [Thread 6724] extDB3: SQL: Error MariaDBQueryException: Input: CALL deleteDeadVehicles
[14:39:33:645654 +01:00] [Thread 16312] extDB3: SQL: Error MariaDBQueryException: Input: CALL deleteOldHouses
[14:39:33:645749 +01:00] [Thread 14020] extDB3: SQL: Error MariaDBQueryException: The user specified as a definer ('arma3'@'localhost') does not exist
[14:39:33:645778 +01:00] [Thread 14020] extDB3: SQL: Error MariaDBQueryException: Input: CALL deleteOldGangs
