
extDB3: https://bitbucket.org/torndeco/extdb3/wiki/Home
extDB3: Version: 1.031
extDB3: Windows Version
Message: All development for extDB3 is done on a Linux Dedicated Server
Message: If you would like to Donate to extDB3 Development
Message: https://www.paypal.com/cgi-bin/webscr?cmd=_s-xclick&hosted_button_id=2SUEFTGABTAM2
Message: Also leave a message if there is any particular feature you would like to see added.
Message: Thanks for all the people that have donated.
Message: Torndeco: 18/05/15


extDB3: Found extdb3-conf.ini
extDB3: Detected 8 Cores, Setting up 6 Worker Threads
extDB3: ...
extDB3: ...
extDB3: ...
extDB3: ...
extDB3: ...
extDB3: ...


[15:16:32:270965 +01:00] [Thread 13840] extDB3: SQL: Initialized: Add Quotes around TEXT Datatypes mode: 2
[15:16:32:271011 +01:00] [Thread 13840] extDB3: SQL: Initialized: NULL = ""
[15:16:32:271293 +01:00] [Thread 13840] extDB3: Locked
[15:16:32:278213 +01:00] [Thread 10888] extDB3: SQL: Error MariaDBQueryException: The user specified as a definer ('arma3'@'localhost') does not exist
[15:16:32:278213 +01:00] [Thread 15000] extDB3: SQL: Error MariaDBQueryException: The user specified as a definer ('arma3'@'localhost') does not exist
[15:16:32:278214 +01:00] [Thread 15868] extDB3: SQL: Error MariaDBQueryException: The user specified as a definer ('arma3'@'localhost') does not exist
[15:16:32:278261 +01:00] [Thread 10888] extDB3: SQL: Error MariaDBQueryException: Input: CALL resetLifeVehicles
[15:16:32:278288 +01:00] [Thread 15000] extDB3: SQL: Error MariaDBQueryException: Input: CALL deleteOldHouses
[15:16:32:278305 +01:00] [Thread 15868] extDB3: SQL: Error MariaDBQueryException: Input: CALL deleteDeadVehicles
[15:16:32:278376 +01:00] [Thread 8092] extDB3: SQL: Error MariaDBQueryException: The user specified as a definer ('arma3'@'localhost') does not exist
[15:16:32:278405 +01:00] [Thread 8092] extDB3: SQL: Error MariaDBQueryException: Input: CALL deleteOldGangs
