
extDB3: https://bitbucket.org/torndeco/extdb3/wiki/Home
extDB3: Version: 1.031
extDB3: Windows Version
Message: All development for extDB3 is done on a Linux Dedicated Server
Message: If you would like to Donate to extDB3 Development
Message: https://www.paypal.com/cgi-bin/webscr?cmd=_s-xclick&hosted_button_id=2SUEFTGABTAM2
Message: Also leave a message if there is any particular feature you would like to see added.
Message: Thanks for all the people that have donated.
Message: Torndeco: 18/05/15


extDB3: Found extdb3-conf.ini
extDB3: Detected 8 Cores, Setting up 6 Worker Threads
extDB3: ...
extDB3: ...
extDB3: ...
extDB3: ...
extDB3: ...
extDB3: ...


[17:18:49:826264 +01:00] [Thread 13704] extDB3: SQL: Initialized: Add Quotes around TEXT Datatypes mode: 2
[17:18:49:826308 +01:00] [Thread 13704] extDB3: SQL: Initialized: NULL = ""
[17:18:49:826747 +01:00] [Thread 13704] extDB3: Locked
[17:18:49:833467 +01:00] [Thread 8956] extDB3: SQL: Error MariaDBQueryException: The user specified as a definer ('arma3'@'localhost') does not exist
[17:18:49:833467 +01:00] [Thread 4640] extDB3: SQL: Error MariaDBQueryException: The user specified as a definer ('arma3'@'localhost') does not exist
[17:18:49:833468 +01:00] [Thread 15512] extDB3: SQL: Error MariaDBQueryException: The user specified as a definer ('arma3'@'localhost') does not exist
[17:18:49:833520 +01:00] [Thread 8956] extDB3: SQL: Error MariaDBQueryException: Input: CALL resetLifeVehicles
[17:18:49:833552 +01:00] [Thread 4640] extDB3: SQL: Error MariaDBQueryException: Input: CALL deleteOldHouses
[17:18:49:833575 +01:00] [Thread 15512] extDB3: SQL: Error MariaDBQueryException: Input: CALL deleteDeadVehicles
[17:18:49:833652 +01:00] [Thread 12248] extDB3: SQL: Error MariaDBQueryException: The user specified as a definer ('arma3'@'localhost') does not exist
[17:18:49:833693 +01:00] [Thread 12248] extDB3: SQL: Error MariaDBQueryException: Input: CALL deleteOldGangs
