
extDB3: https://bitbucket.org/torndeco/extdb3/wiki/Home
extDB3: Version: 1.031
extDB3: Windows Version
Message: All development for extDB3 is done on a Linux Dedicated Server
Message: If you would like to Donate to extDB3 Development
Message: https://www.paypal.com/cgi-bin/webscr?cmd=_s-xclick&hosted_button_id=2SUEFTGABTAM2
Message: Also leave a message if there is any particular feature you would like to see added.
Message: Thanks for all the people that have donated.
Message: Torndeco: 18/05/15


extDB3: Found extdb3-conf.ini
extDB3: Detected 8 Cores, Setting up 6 Worker Threads
extDB3: ...
extDB3: ...
extDB3: ...
extDB3: ...
extDB3: ...
extDB3: ...


[14:50:41:554413 +01:00] [Thread 10564] extDB3: SQL: Initialized: Add Quotes around TEXT Datatypes mode: 2
[14:50:41:554481 +01:00] [Thread 10564] extDB3: SQL: Initialized: NULL = ""
[14:50:41:571232 +01:00] [Thread 10564] extDB3: Locked
[14:50:41:608333 +01:00] [Thread 15120] extDB3: SQL: Error MariaDBQueryException: The user specified as a definer ('arma3'@'localhost') does not exist
[14:50:41:608333 +01:00] [Thread 15680] extDB3: SQL: Error MariaDBQueryException: The user specified as a definer ('arma3'@'localhost') does not exist
[14:50:41:608333 +01:00] [Thread 17080] extDB3: SQL: Error MariaDBQueryException: The user specified as a definer ('arma3'@'localhost') does not exist
[14:50:41:608333 +01:00] [Thread 16680] extDB3: SQL: Error MariaDBQueryException: The user specified as a definer ('arma3'@'localhost') does not exist
[14:50:41:608402 +01:00] [Thread 15120] extDB3: SQL: Error MariaDBQueryException: Input: CALL deleteDeadVehicles
[14:50:41:608441 +01:00] [Thread 15680] extDB3: SQL: Error MariaDBQueryException: Input: CALL deleteOldHouses
[14:50:41:608470 +01:00] [Thread 17080] extDB3: SQL: Error MariaDBQueryException: Input: CALL deleteOldGangs
[14:50:41:608512 +01:00] [Thread 16680] extDB3: SQL: Error MariaDBQueryException: Input: CALL resetLifeVehicles
